codeExamples/avr/fixedPoint/pySimAVR/vcdBased/output.vcd
$timescale 1ns $end
$scope module logic $end
$var wire 1 ! avr.B0 $end
$var wire 1 " avr.B1 $end
$var wire 1 # avr.B2 $end
$var wire 1 $ avr.B3 $end
$upscope $end
$enddefinitions $end
$dumpvars
x!
x"
x#
x$
$end
#10250
0!
0"
0#
0$
#10312
1!
#100010437
0!
#100015500
1"
#102824937
0"
#102826062
1#
#148711875
0#
#148713000
1$
#199314312
0$
